[gd_scene load_steps=3 format=2]

[ext_resource path="res://src/MinerConfigUI/OreOption.gd" type="Script" id=1]
[ext_resource path="res://icon.png" type="Texture" id=2]

[node name="OreOption" type="TextureButton"]
margin_right = 64.0
margin_bottom = 64.0
texture_normal = ExtResource( 2 )
stretch_mode = 5
script = ExtResource( 1 )
__meta__ = {
"_edit_use_anchors_": false
}

[node name="Name" type="Label" parent="."]
anchor_right = 1.0
margin_bottom = 40.0
text = "null"
max_lines_visible = 1
__meta__ = {
"_edit_use_anchors_": false
}

[node name="Count" type="Label" parent="."]
anchor_left = 1.0
anchor_top = 1.0
anchor_right = 1.0
anchor_bottom = 1.0
margin_left = -48.0
margin_top = -40.0
grow_horizontal = 0
grow_vertical = 0
text = "0"
align = 2
valign = 2
max_lines_visible = 1
__meta__ = {
"_edit_use_anchors_": false
}
