[gd_scene format=2]

[node name="AnchorMenu" type="PopupMenu"]
anchor_top = 1.0
anchor_bottom = 1.0
margin_top = -34.0
margin_right = 121.0
items = [ "Remove Anchor", null, 0, false, false, 0, 0, null, "", false ]
