<?xml version="1.0" encoding="UTF-8" standalone="no"?>
<svg
   xmlns:dc="http://purl.org/dc/elements/1.1/"
   xmlns:cc="http://creativecommons.org/ns#"
   xmlns:rdf="http://www.w3.org/1999/02/22-rdf-syntax-ns#"
   xmlns:svg="http://www.w3.org/2000/svg"
   xmlns="http://www.w3.org/2000/svg"
   xmlns:sodipodi="http://sodipodi.sourceforge.net/DTD/sodipodi-0.dtd"
   xmlns:inkscape="http://www.inkscape.org/namespaces/inkscape"
   sodipodi:docname="miner_inactive.svg"
   width="256"
   height="384"
   viewBox="0 0 67.733332 101.6"
   version="1.1"
   id="svg8"
   inkscape:version="1.0 (4035a4fb49, 2020-05-01)">
  <defs
     id="defs2" />
  <sodipodi:namedview
     fit-margin-bottom="0"
     fit-margin-right="0"
     fit-margin-left="0"
     fit-margin-top="0"
     inkscape:snap-bbox-edge-midpoints="true"
     inkscape:snap-smooth-nodes="true"
     inkscape:snap-bbox-midpoints="false"
     inkscape:bbox-nodes="false"
     inkscape:bbox-paths="false"
     inkscape:snap-bbox="true"
     id="base"
     pagecolor="#8c8c8c"
     bordercolor="#000000"
     borderopacity="0.4"
     inkscape:pageopacity="0"
     inkscape:pageshadow="2"
     inkscape:zoom="2.8"
     inkscape:cx="126.58124"
     inkscape:cy="163.79052"
     inkscape:document-units="px"
     inkscape:current-layer="layer1"
     inkscape:document-rotation="0"
     showgrid="true"
     units="px"
     inkscape:pagecheckerboard="true"
     showborder="true"
     borderlayer="true"
     inkscape:showpageshadow="true">
    <inkscape:grid
       originy="0"
       originx="0"
       type="xygrid"
       id="grid10"
       spacingx="1.0583333"
       spacingy="1.0583333"
       empcolor="#000000"
       empopacity="0.4"
       color="#0000ff"
       opacity="0.4" />
  </sodipodi:namedview>
  <metadata
     id="metadata5">
    <rdf:RDF>
      <cc:Work
         rdf:about="">
        <dc:format>image/svg+xml</dc:format>
        <dc:type
           rdf:resource="http://purl.org/dc/dcmitype/StillImage" />
        <dc:title />
      </cc:Work>
    </rdf:RDF>
  </metadata>
  <g
     inkscape:label="Layer 1"
     inkscape:groupmode="layer"
     id="layer1">
    <rect
       ry="0"
       y="0"
       x="38.099998"
       height="42.333332"
       width="16.933332"
       id="rect1426"
       style="fill:#a0522d;stroke:none;stroke-width:13.2292;stroke-linecap:round;stroke-linejoin:round" />
    <path
       sodipodi:nodetypes="ccccccc"
       id="path1424"
       d="M 0,50.8 C 0,33.866666 16.933333,33.866666 16.933333,33.866666 H 50.8 c 0,0 16.933333,0 16.933333,16.933334 l -10e-7,50.8 H 0 Z"
       style="fill:#800080;stroke:none;stroke-width:0.264583px;stroke-linecap:butt;stroke-linejoin:miter;stroke-opacity:1" />
    <circle
       r="4.6661777"
       cy="59.699512"
       cx="8.0338221"
       id="path1428"
       style="fill:#808080;stroke:none;stroke-width:2.33309;stroke-linecap:round;stroke-linejoin:round;stroke-miterlimit:4;stroke-dasharray:none;stroke-opacity:1" />
    <circle
       r="7.7769628"
       cy="56.588726"
       cx="32.920105"
       id="path1430"
       style="fill:#808080;stroke:none;stroke-width:2.33309;stroke-linecap:round;stroke-linejoin:round;stroke-miterlimit:4;stroke-dasharray:none" />
    <path
       sodipodi:nodetypes="ccscc"
       id="path1432"
       d="m 6.4784317,55.033332 24.8862803,-6.22157 c 12.443141,-3.110785 15.553927,15.553925 3.110785,15.553925 H 6.4784317 c -3.110786,1e-6 -6.22157104,-6.22157 0,-9.332355 z"
       style="fill:none;stroke:#000000;stroke-width:3.11078;stroke-linecap:butt;stroke-linejoin:miter;stroke-miterlimit:4;stroke-dasharray:none;stroke-opacity:1" />
    <rect
       y="42.333332"
       x="46.566666"
       height="21.166668"
       width="16.933334"
       id="rect1434"
       style="fill:#ff0000;stroke:none;stroke-width:5.4652;stroke-linecap:round;stroke-linejoin:round;stroke-miterlimit:4;stroke-dasharray:none;stroke-opacity:1" />
    <ellipse
       ry="1.5875026"
       rx="1.587502"
       cy="44.979164"
       cx="49.741665"
       id="path1438"
       style="fill:#ffffff;stroke:none;stroke-width:4.23333;stroke-linecap:round;stroke-linejoin:round;stroke-miterlimit:4;stroke-dasharray:none;stroke-opacity:1" />
    <ellipse
       style="fill:#ffffff;stroke:none;stroke-width:4.23333;stroke-linecap:round;stroke-linejoin:round;stroke-miterlimit:4;stroke-dasharray:none;stroke-opacity:1"
       id="ellipse1440"
       cx="55.033333"
       cy="44.979164"
       rx="1.587502"
       ry="1.5875026" />
    <ellipse
       ry="1.5875026"
       rx="1.587502"
       cy="44.979164"
       cx="60.324997"
       id="ellipse1442"
       style="fill:#ffffff;stroke:none;stroke-width:4.23333;stroke-linecap:round;stroke-linejoin:round;stroke-miterlimit:4;stroke-dasharray:none;stroke-opacity:1" />
    <path
       sodipodi:nodetypes="cc"
       id="path1444"
       d="m 48.68333,48.68333 12.700001,2e-6"
       style="fill:#ffffff;stroke:#ffffff;stroke-width:1.05833;stroke-linecap:round;stroke-linejoin:round;stroke-miterlimit:4;stroke-dasharray:none;stroke-opacity:1" />
    <path
       style="fill:#ffffff;stroke:#ffffff;stroke-width:1.05833;stroke-linecap:round;stroke-linejoin:round;stroke-miterlimit:4;stroke-dasharray:none;stroke-opacity:1"
       d="m 48.68333,51.85833 12.700001,2e-6"
       id="path1448"
       sodipodi:nodetypes="cc" />
    <path
       style="fill:#ffffff;stroke:#ffffff;stroke-width:1.05833;stroke-linecap:round;stroke-linejoin:round;stroke-miterlimit:4;stroke-dasharray:none;stroke-opacity:1"
       d="m 48.68333,55.03333 12.700001,2e-6"
       id="path1450"
       sodipodi:nodetypes="cc" />
    <path
       sodipodi:nodetypes="cc"
       id="path1452"
       d="m 48.68333,58.20833 12.700001,2e-6"
       style="fill:#ffffff;stroke:#ffffff;stroke-width:1.05833;stroke-linecap:round;stroke-linejoin:round;stroke-miterlimit:4;stroke-dasharray:none;stroke-opacity:1" />
    <path
       style="fill:#ffffff;stroke:#ffffff;stroke-width:1.05833;stroke-linecap:round;stroke-linejoin:round;stroke-miterlimit:4;stroke-dasharray:none;stroke-opacity:1"
       d="m 48.68333,61.383329 12.700001,2e-6"
       id="path1454"
       sodipodi:nodetypes="cc" />
  </g>
</svg>
