[gd_scene load_steps=2 format=2]

[ext_resource path="res://src/InventoryUI/ItemMenu.gd" type="Script" id=1]

[node name="ItemMenu" type="PopupMenu"]
visible = true
anchor_top = 1.0
anchor_bottom = 1.0
margin_top = -64.0
margin_right = 67.0
margin_bottom = -30.0
rect_scale = Vector2( 2, 2 )
items = [ "Salvage", null, 0, false, false, 0, 0, null, "", false ]
script = ExtResource( 1 )
__meta__ = {
"_edit_use_anchors_": false
}
[connection signal="id_pressed" from="." to="." method="_on_id_pressed"]
[connection signal="popup_hide" from="." to="." method="_on_popup_hide"]
